<svg xmlns="http://www.w3.org/2000/svg" xmlns:xlink="http://www.w3.org/1999/xlink" width="1920" height="1080" viewBox="0 0 1920 1080">
  <defs>
    <clipPath id="clip-SVG3">
      <rect width="1920" height="1080"/>
    </clipPath>
  </defs>
  <g id="SVG3" clip-path="url(#clip-SVG3)">
    <rect width="1920" height="1080" fill="#fff"/>
    <g id="SVG3-2" data-name="SVG3">
      <g id="Réteg_2" data-name="Réteg 2" transform="translate(121.25 119.208)">
        <g id="Réteg_1" data-name="Réteg 1" transform="translate(1 0)">
          <path id="Path_5829" data-name="Path 5829" d="M49.864,9.453a32.263,32.263,0,0,1,0,45.624L4.24,9.444a32.263,32.263,0,0,1,45.624.008Z" transform="translate(-2.903 0)" fill="#fad841"/>
          <path id="Path_5830" data-name="Path 5830" d="M46.624,31.345a32.263,32.263,0,0,1,0,45.624L1,31.341a32.263,32.263,0,0,1,45.624,0Z" transform="translate(-1 -12.857)" fill="none" stroke="#010101" stroke-linecap="round" stroke-linejoin="round" stroke-width="2"/>
        </g>
      </g>
      <g id="Réteg_2-2" data-name="Réteg 2" transform="translate(1527 81.848)">
        <g id="Réteg_1-2" data-name="Réteg 1" transform="translate(1 1)">
          <path id="Path_5833" data-name="Path 5833" d="M15.26,53.324,53.1,19.71,49.417,73.725Z" transform="translate(-8.098 -10.313)" fill="#fad841"/>
          <path id="Path_5834" data-name="Path 5834" d="M1,31.661,41.264,1,33.52,54.583Z" transform="translate(-1 -1)" fill="none" stroke="#010101" stroke-linecap="round" stroke-linejoin="round" stroke-width="2"/>
          <path id="Path_5835" data-name="Path 5835" d="M61.369,1c-.618.773-19.979,31.746-19.979,31.746L53.624,54.583Z" transform="translate(-21.105 -1)" fill="none" stroke="#010101" stroke-linecap="round" stroke-linejoin="round" stroke-width="2"/>
          <path id="Path_5836" data-name="Path 5836" d="M1,31.661l20.285,1.085L41.264,1Z" transform="translate(-1 -1)" fill="none" stroke="#010101" stroke-linecap="round" stroke-linejoin="round" stroke-width="2"/>
        </g>
      </g>
      <g id="Réteg_2-3" data-name="Réteg 2" transform="translate(282.17 932.556)">
        <g id="Réteg_1-3" data-name="Réteg 1" transform="translate(0.83 0.83)">
          <line id="Line_209" data-name="Line 209" x2="2.071" y2="2.069" transform="translate(13.376 42.593)" fill="none" stroke="#010101" stroke-linecap="round" stroke-linejoin="round" stroke-width="1.65"/>
          <line id="Line_210" data-name="Line 210" x2="3.805" y2="3.807" transform="translate(6.27 35.486)" fill="none" stroke="#010101" stroke-linecap="round" stroke-linejoin="round" stroke-width="1.65"/>
          <line id="Line_211" data-name="Line 211" x2="14.33" y2="14.33" transform="translate(12.718 35.946)" fill="none" stroke="#010101" stroke-linecap="round" stroke-linejoin="round" stroke-width="1.65"/>
          <line id="Line_212" data-name="Line 212" x2="2.905" y2="2.907" transform="translate(5.412 28.638)" fill="none" stroke="#010101" stroke-linecap="round" stroke-linejoin="round" stroke-width="1.65"/>
          <line id="Line_213" data-name="Line 213" x2="12.61" y2="12.608" transform="translate(23.017 40.256)" fill="none" stroke="#ffaf00" stroke-linecap="round" stroke-linejoin="round" stroke-width="1.65"/>
          <line id="Line_214" data-name="Line 214" x2="13.444" y2="13.444" transform="translate(3.993 21.231)" fill="none" stroke="#ffaf00" stroke-linecap="round" stroke-linejoin="round" stroke-width="1.65"/>
          <line id="Line_215" data-name="Line 215" x2="22.255" y2="22.257" transform="translate(14.534 25.782)" fill="none" stroke="#010101" stroke-linecap="round" stroke-linejoin="round" stroke-width="1.65"/>
          <line id="Line_216" data-name="Line 216" x2="4.71" y2="4.712" transform="translate(5.331 16.579)" fill="none" stroke="#010101" stroke-linecap="round" stroke-linejoin="round" stroke-width="1.65"/>
          <line id="Line_217" data-name="Line 217" x2="5.35" y2="5.35" transform="translate(32.909 38.168)" fill="none" stroke="#010101" stroke-linecap="round" stroke-linejoin="round" stroke-width="1.65"/>
          <line id="Line_218" data-name="Line 218" x2="27.282" y2="27.284" transform="translate(0 5.259)" fill="none" stroke="#010101" stroke-linecap="round" stroke-linejoin="round" stroke-width="1.65"/>
          <line id="Line_219" data-name="Line 219" x2="26.654" y2="26.652" transform="translate(21.883 21.155)" fill="none" stroke="#fad841" stroke-linecap="round" stroke-linejoin="round" stroke-width="1.65"/>
          <line id="Line_220" data-name="Line 220" x2="6.193" y2="6.191" transform="translate(10.111 9.383)" fill="none" stroke="#ffaf00" stroke-linecap="round" stroke-linejoin="round" stroke-width="1.65"/>
          <line id="Line_221" data-name="Line 221" x2="17.218" y2="17.218" transform="translate(27.056 20.338)" fill="none" stroke="#010101" stroke-linecap="round" stroke-linejoin="round" stroke-width="1.65"/>
          <line id="Line_222" data-name="Line 222" x2="12.721" y2="12.723" transform="translate(9.479 2.76)" fill="none" stroke="#010101" stroke-linecap="round" stroke-linejoin="round" stroke-width="1.65"/>
          <line id="Line_223" data-name="Line 223" x2="8.992" y2="8.994" transform="translate(41.258 28.55)" fill="none" stroke="#ffaf00" stroke-linecap="round" stroke-linejoin="round" stroke-width="1.65"/>
          <line id="Line_224" data-name="Line 224" x2="17.471" y2="17.471" transform="translate(17.252 4.546)" fill="none" stroke="#ffaf00" stroke-linecap="round" stroke-linejoin="round" stroke-width="1.65"/>
          <line id="Line_225" data-name="Line 225" x2="12.15" y2="12.15" transform="translate(32.545 13.849)" fill="none" stroke="#010101" stroke-linecap="round" stroke-linejoin="round" stroke-width="1.65"/>
          <line id="Line_226" data-name="Line 226" x2="9.086" y2="9.086" transform="translate(18.695)" fill="none" stroke="#010101" stroke-linecap="round" stroke-linejoin="round" stroke-width="1.65"/>
          <line id="Line_227" data-name="Line 227" x2="4.727" y2="4.725" transform="translate(43.344 18.66)" fill="none" stroke="#ffaf00" stroke-linecap="round" stroke-linejoin="round" stroke-width="1.65"/>
          <line id="Line_228" data-name="Line 228" x2="11.98" y2="11.978" transform="translate(25.965 1.281)" fill="none" stroke="#ffaf00" stroke-linecap="round" stroke-linejoin="round" stroke-width="1.65"/>
          <line id="Line_229" data-name="Line 229" x2="2.903" y2="2.903" transform="translate(40.888 10.215)" fill="none" stroke="#010101" stroke-linecap="round" stroke-linejoin="round" stroke-width="1.65"/>
          <line id="Line_230" data-name="Line 230" x2="2.003" y2="2.001" transform="translate(35.789 5.116)" fill="none" stroke="#010101" stroke-linecap="round" stroke-linejoin="round" stroke-width="1.65"/>
        </g>
      </g>
      <g id="Réteg_2-4" data-name="Réteg 2" transform="translate(1658 939.056)">
        <g id="Réteg_1-4" data-name="Réteg 1" transform="translate(0 1.25)">
          <path id="Path_5869" data-name="Path 5869" d="M26.018,48.07a5.989,5.989,0,0,1-4.235-10.2A8.184,8.184,0,1,0,10.218,26.284a5.985,5.985,0,1,1-8.465-8.465,20.15,20.15,0,0,1,28.5,28.5,5.972,5.972,0,0,1-4.232,1.754Z" transform="translate(0 -8.326)" fill="#2a8373"/>
          <path id="Path_5870" data-name="Path 5870" d="M36.906,37.4a5.986,5.986,0,0,1-4.232-10.218A8.181,8.181,0,0,0,21.1,15.616a5.986,5.986,0,0,1-8.46-8.464,20.149,20.149,0,1,1,28.5,28.5A5.969,5.969,0,0,1,36.906,37.4Z" transform="translate(-7.3 -1.25)" fill="none" stroke="#010101" stroke-miterlimit="10" stroke-width="2.56"/>
        </g>
      </g>
      <g id="Réteg_2-5" data-name="Réteg 2" transform="translate(959 46.187)">
        <g id="Réteg_1-5" data-name="Réteg 1" transform="translate(1 1)">
          <circle id="Ellipse_343" data-name="Ellipse 343" cx="15.212" cy="15.212" r="15.212" transform="translate(5.469 5.469)" fill="#fad841"/>
          <circle id="Ellipse_344" data-name="Ellipse 344" cx="15.212" cy="15.212" r="15.212" fill="none" stroke="#010101" stroke-linecap="round" stroke-linejoin="round" stroke-width="2"/>
        </g>
      </g>
      <g id="Réteg_2-6" data-name="Réteg 2" transform="translate(809 475.131)">
        <g id="Réteg_1-6" data-name="Réteg 1" transform="translate(0 -0.001)">
          <path id="Path_5841" data-name="Path 5841" d="M34.839,7.149a24.242,24.242,0,0,1,0,34.51L0,7.144a24.8,24.8,0,0,1,34.839,0Z" transform="translate(0 0.001)" fill="#fad841"/>
          <path id="Path_5842" data-name="Path 5842" d="M24.752,80.975a24.242,24.242,0,0,1,0-34.515L59.6,80.98a24.8,24.8,0,0,1-34.844,0Z" transform="translate(-8.787 -23.28)" fill="none" stroke="#000" stroke-miterlimit="10" stroke-width="2.52"/>
        </g>
      </g>
      <g id="Réteg_2-7" data-name="Réteg 2" transform="translate(870.881 913.88)">
        <g id="Réteg_1-7" data-name="Réteg 1">
          <path id="Path_5812" data-name="Path 5812" d="M48.56,2.12A32.839,32.839,0,1,1,2.119,48.561" fill="none" stroke="#fad841" stroke-miterlimit="10" stroke-width="6"/>
          <path id="Path_5813" data-name="Path 5813" d="M49,2.56A32.839,32.839,0,1,1,2.559,49" fill="none" stroke="#010101" stroke-linecap="round" stroke-linejoin="round" stroke-width="2"/>
        </g>
      </g>
      <g id="Réteg_2-8" data-name="Réteg 2" transform="translate(114.5 623.365)">
        <g id="Réteg_1-8" data-name="Réteg 1" transform="translate(7.5 7.508)">
          <path id="Path_5811" data-name="Path 5811" d="M10.3,42.836A24.068,24.068,0,1,1,52.848,20.327" transform="translate(-7.5 -7.508)" fill="none" stroke="#2a8373" stroke-linecap="round" stroke-linejoin="round" stroke-width="15"/>
        </g>
      </g>
      <g id="Réteg_2-9" data-name="Réteg 2" transform="translate(1485.57 583.156)">
        <g id="Réteg_1-9" data-name="Réteg 1" transform="translate(0.429 0.434)">
          <rect id="Rectangle_1599" data-name="Rectangle 1599" width="45.962" height="45.962" rx="1" transform="translate(0 32.5) rotate(-45)" fill="none" stroke="#fad841" stroke-miterlimit="10" stroke-width="1.71"/>
          <rect id="Rectangle_1600" data-name="Rectangle 1600" width="26.278" height="26.278" rx="0.57" transform="translate(13.923 32.5) rotate(-45)" fill="#0f141e"/>
        </g>
      </g>
      <g id="Réteg_2-10" data-name="Réteg 2" transform="translate(1752.5 264.741)">
        <g id="Réteg_1-10" data-name="Réteg 1" transform="translate(0.5 0.5)">
          <path id="Path_5871" data-name="Path 5871" d="M34,11.71,23.646,22.053,13.3,11.71,5.19,19.823l10.343,10.35L5.19,40.516,13.3,48.629,23.646,38.285,34,48.629l8.113-8.113L31.765,30.173l10.343-10.35Z" transform="translate(-1.91 -3.87)" fill="#0f141e"/>
          <path id="Path_5872" data-name="Path 5872" d="M31.244.5,20.9,10.843,10.557.5,2.437,8.613l10.35,10.343L.5,28.013l8.113,8.113L20.9,27.075,31.244,37.419l8.113-8.113L29.013,18.956,39.356,8.613Z" transform="translate(-0.5 -0.5)" fill="none" stroke="#fad841" stroke-linecap="round" stroke-linejoin="round" stroke-width="1"/>
        </g>
      </g>
      <g id="Réteg_2-11" data-name="Réteg 2" transform="translate(471.57 221.156)">
        <g id="Réteg_1-11" data-name="Réteg 1" transform="translate(0.429 0.434)">
          <rect id="Rectangle_1599-2" data-name="Rectangle 1599" width="45.962" height="45.962" rx="1" transform="translate(0 32.5) rotate(-45)" fill="none" stroke="#fad841" stroke-miterlimit="10" stroke-width="1.71"/>
          <rect id="Rectangle_1600-2" data-name="Rectangle 1600" width="26.278" height="26.278" rx="0.57" transform="translate(13.923 32.5) rotate(-45)" fill="#0f141e"/>
        </g>
      </g>
    </g>
  </g>
</svg>
